<svg width="18" height="18" viewBox="0 0 18 18" fill="none" xmlns="http://www.w3.org/2000/svg">
<rect x="0.5" y="17.5" width="17" height="17" transform="rotate(-90 0.5 17.5)" fill="white" stroke="#182061"/>
<path d="M6.94922 14L11.899 9.05025L6.94922 4.10051" stroke="#182061" stroke-linecap="round"/>
</svg>
