<svg width="58" height="77" viewBox="0 0 58 77" fill="none" xmlns="http://www.w3.org/2000/svg">
<path d="M33.341 0H0V77H16.9719V39.0784C16.9719 39.0784 17.3839 26.1808 26.2869 20.8127C35.1899 15.4447 43.4397 22.5581 43.4397 22.5581L37.9934 34.1264L30.5073 49.7638H31.4016C44.9671 49.7638 58 38.6015 58 24.8616C57.9709 18.27 55.3622 11.9573 50.7429 7.3C46.1236 2.64274 39.8683 0.0186836 33.341 0Z" fill="#182061"/>
</svg>
