<svg width="20" height="20" viewBox="0 0 20 20" fill="none" xmlns="http://www.w3.org/2000/svg">
<circle cx="10" cy="10" r="8" fill="#182061" fill-opacity="0.37" stroke="white" stroke-width="4"/>
</svg>
